MultiAssayExperiment: Integrative workflow for public multi-omics data • MultiAssayWorkshop
…
cBioPortalData - data from the API

Note. pkgdown reference website here: https://waldronlab.io/cBioPortalData/

Listing the studies available

First, we create an API object using the cBioPortal
function. This will allow us to subsequently generate queries for the
service.

cbio <- cBioPortal()
getStudies(cbio)

## # A tibble: 395 × 13
##    name          description publicStudy groups status importDate allSampleCount
##    <chr>         <chr>       <lgl>       <chr>   <int> <chr>               <int>
##  1 Adrenocortic… "TCGA Adre… TRUE        PUBLIC      0 2023-06-1…             92
##  2 Acute Myeloi… "TCGA Acut… TRUE        PUBLIC      0 2023-06-1…            200
##  3 Bladder Urot… "TCGA Blad… TRUE        PUBLIC      0 2023-06-1…            413
##  4 Kidney Renal… "TCGA Kidn… TRUE        PUBLIC      0 2023-06-1…            538
##  5 Cervical Squ… "TCGA Cerv… TRUE        PUBLIC      0 2023-06-1…            310
##  6 Cholangiocar… "TCGA Chol… TRUE        PUBLIC      0 2023-06-1…             51
##  7 Kidney Chrom… "TCGA Kidn… TRUE        PUBLIC      0 2023-06-1…            113
##  8 Colorectal A… "TCGA Colo… TRUE        PUBLIC      0 2023-06-1…            640
##  9 Lymphoid Neo… "TCGA Lymp… TRUE        PUBLIC      0 2023-06-1…             48
## 10 Esophageal C… "TCGA Esop… TRUE        PUBLIC      0 2023-06-1…            186
## # ℹ 385 more rows
## # ℹ 6 more variables: readPermission <lgl>, studyId <chr>, cancerTypeId <chr>,
## #   referenceGenome <chr>, pmid <chr>, citation <chr>

We can also see the build status of the datasets using the
buildReport argument.

getStudies(cbio, buildReport = TRUE)

## # A tibble: 395 × 15
##    name          description publicStudy groups status importDate allSampleCount
##    <chr>         <chr>       <lgl>       <chr>   <int> <chr>               <int>
##  1 Adrenocortic… "TCGA Adre… TRUE        PUBLIC      0 2023-06-1…             92
##  2 Acute Myeloi… "TCGA Acut… TRUE        PUBLIC      0 2023-06-1…            200
##  3 Bladder Urot… "TCGA Blad… TRUE        PUBLIC      0 2023-06-1…            413
##  4 Kidney Renal… "TCGA Kidn… TRUE        PUBLIC      0 2023-06-1…            538
##  5 Cervical Squ… "TCGA Cerv… TRUE        PUBLIC      0 2023-06-1…            310
##  6 Cholangiocar… "TCGA Chol… TRUE        PUBLIC      0 2023-06-1…             51
##  7 Kidney Chrom… "TCGA Kidn… TRUE        PUBLIC      0 2023-06-1…            113
##  8 Colorectal A… "TCGA Colo… TRUE        PUBLIC      0 2023-06-1…            640
##  9 Lymphoid Neo… "TCGA Lymp… TRUE        PUBLIC      0 2023-06-1…             48
## 10 Esophageal C… "TCGA Esop… TRUE        PUBLIC      0 2023-06-1…            186
## # ℹ 385 more rows
## # ℹ 8 more variables: readPermission <lgl>, studyId <chr>, cancerTypeId <chr>,
## #   referenceGenome <chr>, pmid <chr>, citation <chr>, api_build <lgl>,
## #   pack_build <lgl>
…
